..R.........................
RRRRRRRRRRRRRRRRRRRRRRRRRRRR
..R.........................
..R..HHHHH..................
..R..HHHHH..............W...
..R...............W..WWWWWWW
..R.........W...WWWWWWWWWWWW
..R......WWWWWWWWWWWWWWWWWWW
..R.....WWWWWWWWWWWWWWWWWWWW
..R.....WWWWWWWWWWWWWWWWWWWW
..R.....WWWWWWWWWWWWWWWWWWWW
..R....WWWWWWWWWWWWWWWWWWWWW
