..R.........................
RRRRRRRRRRRRRRRRRRRRRRRRRRRR
..R.........................
..R..HHHHH..................
..R..HHHHH..................
..R...............W.........
..R.............WWWWW.......
..R.............WWWWW.......
..R............WWWWWWW......
..R.............WWWWW.......
..R.............WWWWW.......
..R...............W.........
